{
  "name": "robofirm-php",
  "version": "1.1.0",
  "author": "Robofirm",
  "summary": "Installs PHP FPM and extensions with the ability to configure php settings, extension settings, and FPM pools.",
  "license": "MIT",
  "source": "https://bitbucket.org/robofirm/puppet-module-php/src",
  "project_page": "https://bitbucket.org/robofirm/puppet-module-php",
  "issues_url": "https://bitbucket.org/robofirm/puppet-module-php/issues",
  "dependencies": [
    {
      "name": "puppetlabs/stdlib",
      "version_requirement": ">= 4.6.0 < 5.0.0"
    },
    {
      "name": "example42/yum",
      "version_requirement": ">= 2.1.28 < 3.0.0"
    },
    {
      "name": "puppetlabs/inifile",
      "version_requirement": ">= 1.4.1 < 2.0.0"
    }
  ],
  "data_provider": "hiera",
  "operatingsystem_support": [
    {
      "operatingsystem": "RedHat",
      "operatingsystemrelease": [
        "7"
      ]
    },
    {
      "operatingsystem": "CentOS",
      "operatingsystemrelease": [
        "7"
      ]
    }
  ],
  "requirements": [
    {
      "name": "puppet",
      "version_requirement": ">= 4.3.0 < 6.0.0"
    }
  ],
  "tags": [
    "php",
    "php-fpm",
    "php-ext"
  ]
}
